%YAML 1.1
%TAG !u! tag:unity3d.com,2011:
--- !u!1 &3013598750790503845
GameObject:
  m_ObjectHideFlags: 0
  m_CorrespondingSourceObject: {fileID: 0}
  m_PrefabInstance: {fileID: 0}
  m_PrefabAsset: {fileID: 0}
  serializedVersion: 6
  m_Component:
  - component: {fileID: 3013598750790503842}
  - component: {fileID: 3013598750790503841}
  - component: {fileID: 3013598750790503840}
  - component: {fileID: 3013598750790503843}
  m_Layer: 0
  m_Name: DeadTerrain
  m_TagString: Terrain
  m_Icon: {fileID: 0}
  m_NavMeshLayer: 0
  m_StaticEditorFlags: 0
  m_IsActive: 1
--- !u!4 &3013598750790503842
Transform:
  m_ObjectHideFlags: 0
  m_CorrespondingSourceObject: {fileID: 0}
  m_PrefabInstance: {fileID: 0}
  m_PrefabAsset: {fileID: 0}
  m_GameObject: {fileID: 3013598750790503845}
  m_LocalRotation: {x: -0, y: -0, z: -0, w: 1}
  m_LocalPosition: {x: 8.3, y: 4, z: 0}
  m_LocalScale: {x: 0.25, y: 0.25, z: 1}
  m_Children: []
  m_Father: {fileID: 0}
  m_RootOrder: 0
  m_LocalEulerAnglesHint: {x: 0, y: 0, z: 0}
--- !u!1839735485 &3013598750790503841
Tilemap:
  m_ObjectHideFlags: 0
  m_CorrespondingSourceObject: {fileID: 0}
  m_PrefabInstance: {fileID: 0}
  m_PrefabAsset: {fileID: 0}
  m_GameObject: {fileID: 3013598750790503845}
  m_Enabled: 1
  m_Tiles:
  - first: {x: -3, y: -3, z: 0}
    second:
      serializedVersion: 2
      m_TileIndex: 0
      m_TileSpriteIndex: 0
      m_TileMatrixIndex: 0
      m_TileColorIndex: 0
      m_TileObjectToInstantiateIndex: 65535
      m_AllTileFlags: 1073741825
  - first: {x: -2, y: -3, z: 0}
    second:
      serializedVersion: 2
      m_TileIndex: 1
      m_TileSpriteIndex: 1
      m_TileMatrixIndex: 0
      m_TileColorIndex: 0
      m_TileObjectToInstantiateIndex: 65535
      m_AllTileFlags: 1073741825
  - first: {x: -1, y: -3, z: 0}
    second:
      serializedVersion: 2
      m_TileIndex: 25
      m_TileSpriteIndex: 25
      m_TileMatrixIndex: 0
      m_TileColorIndex: 0
      m_TileObjectToInstantiateIndex: 65535
      m_AllTileFlags: 1073741825
  - first: {x: -4, y: -2, z: 0}
    second:
      serializedVersion: 2
      m_TileIndex: 2
      m_TileSpriteIndex: 2
      m_TileMatrixIndex: 0
      m_TileColorIndex: 0
      m_TileObjectToInstantiateIndex: 65535
      m_AllTileFlags: 1073741825
  - first: {x: -3, y: -2, z: 0}
    second:
      serializedVersion: 2
      m_TileIndex: 3
      m_TileSpriteIndex: 3
      m_TileMatrixIndex: 0
      m_TileColorIndex: 0
      m_TileObjectToInstantiateIndex: 65535
      m_AllTileFlags: 1073741825
  - first: {x: -2, y: -2, z: 0}
    second:
      serializedVersion: 2
      m_TileIndex: 4
      m_TileSpriteIndex: 4
      m_TileMatrixIndex: 0
      m_TileColorIndex: 0
      m_TileObjectToInstantiateIndex: 65535
      m_AllTileFlags: 1073741825
  - first: {x: -1, y: -2, z: 0}
    second:
      serializedVersion: 2
      m_TileIndex: 26
      m_TileSpriteIndex: 26
      m_TileMatrixIndex: 0
      m_TileColorIndex: 0
      m_TileObjectToInstantiateIndex: 65535
      m_AllTileFlags: 1073741825
  - first: {x: 0, y: -2, z: 0}
    second:
      serializedVersion: 2
      m_TileIndex: 32
      m_TileSpriteIndex: 32
      m_TileMatrixIndex: 0
      m_TileColorIndex: 0
      m_TileObjectToInstantiateIndex: 65535
      m_AllTileFlags: 1073741825
  - first: {x: -5, y: -1, z: 0}
    second:
      serializedVersion: 2
      m_TileIndex: 5
      m_TileSpriteIndex: 5
      m_TileMatrixIndex: 0
      m_TileColorIndex: 0
      m_TileObjectToInstantiateIndex: 65535
      m_AllTileFlags: 1073741825
  - first: {x: -4, y: -1, z: 0}
    second:
      serializedVersion: 2
      m_TileIndex: 6
      m_TileSpriteIndex: 6
      m_TileMatrixIndex: 0
      m_TileColorIndex: 0
      m_TileObjectToInstantiateIndex: 65535
      m_AllTileFlags: 1073741825
  - first: {x: -3, y: -1, z: 0}
    second:
      serializedVersion: 2
      m_TileIndex: 7
      m_TileSpriteIndex: 7
      m_TileMatrixIndex: 0
      m_TileColorIndex: 0
      m_TileObjectToInstantiateIndex: 65535
      m_AllTileFlags: 1073741825
  - first: {x: -2, y: -1, z: 0}
    second:
      serializedVersion: 2
      m_TileIndex: 8
      m_TileSpriteIndex: 8
      m_TileMatrixIndex: 0
      m_TileColorIndex: 0
      m_TileObjectToInstantiateIndex: 65535
      m_AllTileFlags: 1073741825
  - first: {x: -1, y: -1, z: 0}
    second:
      serializedVersion: 2
      m_TileIndex: 27
      m_TileSpriteIndex: 27
      m_TileMatrixIndex: 0
      m_TileColorIndex: 0
      m_TileObjectToInstantiateIndex: 65535
      m_AllTileFlags: 1073741825
  - first: {x: 0, y: -1, z: 0}
    second:
      serializedVersion: 2
      m_TileIndex: 33
      m_TileSpriteIndex: 33
      m_TileMatrixIndex: 0
      m_TileColorIndex: 0
      m_TileObjectToInstantiateIndex: 65535
      m_AllTileFlags: 1073741825
  - first: {x: 1, y: -1, z: 0}
    second:
      serializedVersion: 2
      m_TileIndex: 34
      m_TileSpriteIndex: 34
      m_TileMatrixIndex: 0
      m_TileColorIndex: 0
      m_TileObjectToInstantiateIndex: 65535
      m_AllTileFlags: 1073741825
  - first: {x: -5, y: 0, z: 0}
    second:
      serializedVersion: 2
      m_TileIndex: 9
      m_TileSpriteIndex: 9
      m_TileMatrixIndex: 0
      m_TileColorIndex: 0
      m_TileObjectToInstantiateIndex: 65535
      m_AllTileFlags: 1073741825
  - first: {x: -4, y: 0, z: 0}
    second:
      serializedVersion: 2
      m_TileIndex: 10
      m_TileSpriteIndex: 10
      m_TileMatrixIndex: 0
      m_TileColorIndex: 0
      m_TileObjectToInstantiateIndex: 65535
      m_AllTileFlags: 1073741825
  - first: {x: -3, y: 0, z: 0}
    second:
      serializedVersion: 2
      m_TileIndex: 11
      m_TileSpriteIndex: 11
      m_TileMatrixIndex: 0
      m_TileColorIndex: 0
      m_TileObjectToInstantiateIndex: 65535
      m_AllTileFlags: 1073741825
  - first: {x: -2, y: 0, z: 0}
    second:
      serializedVersion: 2
      m_TileIndex: 12
      m_TileSpriteIndex: 12
      m_TileMatrixIndex: 0
      m_TileColorIndex: 0
      m_TileObjectToInstantiateIndex: 65535
      m_AllTileFlags: 1073741825
  - first: {x: -1, y: 0, z: 0}
    second:
      serializedVersion: 2
      m_TileIndex: 28
      m_TileSpriteIndex: 28
      m_TileMatrixIndex: 0
      m_TileColorIndex: 0
      m_TileObjectToInstantiateIndex: 65535
      m_AllTileFlags: 1073741825
  - first: {x: 0, y: 0, z: 0}
    second:
      serializedVersion: 2
      m_TileIndex: 35
      m_TileSpriteIndex: 35
      m_TileMatrixIndex: 0
      m_TileColorIndex: 0
      m_TileObjectToInstantiateIndex: 65535
      m_AllTileFlags: 1073741825
  - first: {x: 1, y: 0, z: 0}
    second:
      serializedVersion: 2
      m_TileIndex: 36
      m_TileSpriteIndex: 36
      m_TileMatrixIndex: 0
      m_TileColorIndex: 0
      m_TileObjectToInstantiateIndex: 65535
      m_AllTileFlags: 1073741825
  - first: {x: -5, y: 1, z: 0}
    second:
      serializedVersion: 2
      m_TileIndex: 13
      m_TileSpriteIndex: 13
      m_TileMatrixIndex: 0
      m_TileColorIndex: 0
      m_TileObjectToInstantiateIndex: 65535
      m_AllTileFlags: 1073741825
  - first: {x: -4, y: 1, z: 0}
    second:
      serializedVersion: 2
      m_TileIndex: 14
      m_TileSpriteIndex: 14
      m_TileMatrixIndex: 0
      m_TileColorIndex: 0
      m_TileObjectToInstantiateIndex: 65535
      m_AllTileFlags: 1073741825
  - first: {x: -3, y: 1, z: 0}
    second:
      serializedVersion: 2
      m_TileIndex: 15
      m_TileSpriteIndex: 15
      m_TileMatrixIndex: 0
      m_TileColorIndex: 0
      m_TileObjectToInstantiateIndex: 65535
      m_AllTileFlags: 1073741825
  - first: {x: -2, y: 1, z: 0}
    second:
      serializedVersion: 2
      m_TileIndex: 16
      m_TileSpriteIndex: 16
      m_TileMatrixIndex: 0
      m_TileColorIndex: 0
      m_TileObjectToInstantiateIndex: 65535
      m_AllTileFlags: 1073741825
  - first: {x: -1, y: 1, z: 0}
    second:
      serializedVersion: 2
      m_TileIndex: 29
      m_TileSpriteIndex: 29
      m_TileMatrixIndex: 0
      m_TileColorIndex: 0
      m_TileObjectToInstantiateIndex: 65535
      m_AllTileFlags: 1073741825
  - first: {x: 0, y: 1, z: 0}
    second:
      serializedVersion: 2
      m_TileIndex: 37
      m_TileSpriteIndex: 37
      m_TileMatrixIndex: 0
      m_TileColorIndex: 0
      m_TileObjectToInstantiateIndex: 65535
      m_AllTileFlags: 1073741825
  - first: {x: 1, y: 1, z: 0}
    second:
      serializedVersion: 2
      m_TileIndex: 38
      m_TileSpriteIndex: 38
      m_TileMatrixIndex: 0
      m_TileColorIndex: 0
      m_TileObjectToInstantiateIndex: 65535
      m_AllTileFlags: 1073741825
  - first: {x: -5, y: 2, z: 0}
    second:
      serializedVersion: 2
      m_TileIndex: 17
      m_TileSpriteIndex: 17
      m_TileMatrixIndex: 0
      m_TileColorIndex: 0
      m_TileObjectToInstantiateIndex: 65535
      m_AllTileFlags: 1073741825
  - first: {x: -4, y: 2, z: 0}
    second:
      serializedVersion: 2
      m_TileIndex: 18
      m_TileSpriteIndex: 18
      m_TileMatrixIndex: 0
      m_TileColorIndex: 0
      m_TileObjectToInstantiateIndex: 65535
      m_AllTileFlags: 1073741825
  - first: {x: -3, y: 2, z: 0}
    second:
      serializedVersion: 2
      m_TileIndex: 19
      m_TileSpriteIndex: 19
      m_TileMatrixIndex: 0
      m_TileColorIndex: 0
      m_TileObjectToInstantiateIndex: 65535
      m_AllTileFlags: 1073741825
  - first: {x: -2, y: 2, z: 0}
    second:
      serializedVersion: 2
      m_TileIndex: 20
      m_TileSpriteIndex: 20
      m_TileMatrixIndex: 0
      m_TileColorIndex: 0
      m_TileObjectToInstantiateIndex: 65535
      m_AllTileFlags: 1073741825
  - first: {x: -1, y: 2, z: 0}
    second:
      serializedVersion: 2
      m_TileIndex: 30
      m_TileSpriteIndex: 30
      m_TileMatrixIndex: 0
      m_TileColorIndex: 0
      m_TileObjectToInstantiateIndex: 65535
      m_AllTileFlags: 1073741825
  - first: {x: 0, y: 2, z: 0}
    second:
      serializedVersion: 2
      m_TileIndex: 39
      m_TileSpriteIndex: 39
      m_TileMatrixIndex: 0
      m_TileColorIndex: 0
      m_TileObjectToInstantiateIndex: 65535
      m_AllTileFlags: 1073741825
  - first: {x: 1, y: 2, z: 0}
    second:
      serializedVersion: 2
      m_TileIndex: 40
      m_TileSpriteIndex: 40
      m_TileMatrixIndex: 0
      m_TileColorIndex: 0
      m_TileObjectToInstantiateIndex: 65535
      m_AllTileFlags: 1073741825
  - first: {x: -5, y: 3, z: 0}
    second:
      serializedVersion: 2
      m_TileIndex: 21
      m_TileSpriteIndex: 21
      m_TileMatrixIndex: 0
      m_TileColorIndex: 0
      m_TileObjectToInstantiateIndex: 65535
      m_AllTileFlags: 1073741825
  - first: {x: -4, y: 3, z: 0}
    second:
      serializedVersion: 2
      m_TileIndex: 22
      m_TileSpriteIndex: 22
      m_TileMatrixIndex: 0
      m_TileColorIndex: 0
      m_TileObjectToInstantiateIndex: 65535
      m_AllTileFlags: 1073741825
  - first: {x: -3, y: 3, z: 0}
    second:
      serializedVersion: 2
      m_TileIndex: 23
      m_TileSpriteIndex: 23
      m_TileMatrixIndex: 0
      m_TileColorIndex: 0
      m_TileObjectToInstantiateIndex: 65535
      m_AllTileFlags: 1073741825
  - first: {x: -2, y: 3, z: 0}
    second:
      serializedVersion: 2
      m_TileIndex: 24
      m_TileSpriteIndex: 24
      m_TileMatrixIndex: 0
      m_TileColorIndex: 0
      m_TileObjectToInstantiateIndex: 65535
      m_AllTileFlags: 1073741825
  - first: {x: -1, y: 3, z: 0}
    second:
      serializedVersion: 2
      m_TileIndex: 31
      m_TileSpriteIndex: 31
      m_TileMatrixIndex: 0
      m_TileColorIndex: 0
      m_TileObjectToInstantiateIndex: 65535
      m_AllTileFlags: 1073741825
  - first: {x: 0, y: 3, z: 0}
    second:
      serializedVersion: 2
      m_TileIndex: 41
      m_TileSpriteIndex: 41
      m_TileMatrixIndex: 0
      m_TileColorIndex: 0
      m_TileObjectToInstantiateIndex: 65535
      m_AllTileFlags: 1073741825
  - first: {x: 1, y: 3, z: 0}
    second:
      serializedVersion: 2
      m_TileIndex: 42
      m_TileSpriteIndex: 42
      m_TileMatrixIndex: 0
      m_TileColorIndex: 0
      m_TileObjectToInstantiateIndex: 65535
      m_AllTileFlags: 1073741825
  m_AnimatedTiles: {}
  m_TileAssetArray:
  - m_RefCount: 1
    m_Data: {fileID: 11400000, guid: b306e9a31fb739647aa31b82bc8ebc49, type: 2}
  - m_RefCount: 1
    m_Data: {fileID: 11400000, guid: 6f4c1fdf3cd144243a23c4f3ca4ce5a1, type: 2}
  - m_RefCount: 1
    m_Data: {fileID: 11400000, guid: 2282c70b679cc94458d592f5c2a0f85d, type: 2}
  - m_RefCount: 1
    m_Data: {fileID: 11400000, guid: aeb0393dc23baeb46afba585a9569d21, type: 2}
  - m_RefCount: 1
    m_Data: {fileID: 11400000, guid: 342aa195fa503a84387a2ef6526a07e8, type: 2}
  - m_RefCount: 1
    m_Data: {fileID: 11400000, guid: 3d25601fcb560ac48b2c43aa2292320c, type: 2}
  - m_RefCount: 1
    m_Data: {fileID: 11400000, guid: 1526a19418657bc42a5479c6a64127e2, type: 2}
  - m_RefCount: 1
    m_Data: {fileID: 11400000, guid: c4effdca3d75bf4478dd5c870518f0a9, type: 2}
  - m_RefCount: 1
    m_Data: {fileID: 11400000, guid: 2fafae1f9b8636846915fc157618fd0d, type: 2}
  - m_RefCount: 1
    m_Data: {fileID: 11400000, guid: aff5022fa22bf7449bad6ed19cd39348, type: 2}
  - m_RefCount: 1
    m_Data: {fileID: 11400000, guid: 30338c07fc0d52b4ba8ad50e1ce05ba9, type: 2}
  - m_RefCount: 1
    m_Data: {fileID: 11400000, guid: a8d7c1ae136678f48993bcfc3f2735c3, type: 2}
  - m_RefCount: 1
    m_Data: {fileID: 11400000, guid: 3a5f3ff0e9e59c149be1e8dc967b9ca6, type: 2}
  - m_RefCount: 1
    m_Data: {fileID: 11400000, guid: adb440153f63a484ca4acbaecc335c45, type: 2}
  - m_RefCount: 1
    m_Data: {fileID: 11400000, guid: 74869432cbd40f1499a68bbd23abc67b, type: 2}
  - m_RefCount: 1
    m_Data: {fileID: 11400000, guid: 0bcebba9c639d6341a1e70999c35b2a6, type: 2}
  - m_RefCount: 1
    m_Data: {fileID: 11400000, guid: 2884451a3168c9f428dd612fc41bead2, type: 2}
  - m_RefCount: 1
    m_Data: {fileID: 11400000, guid: 24f5b5452cfd36a499960eaa5611c3a9, type: 2}
  - m_RefCount: 1
    m_Data: {fileID: 11400000, guid: 7214f87a2f07a524187cf63fe1cdfd72, type: 2}
  - m_RefCount: 1
    m_Data: {fileID: 11400000, guid: b3e2f9dd306cdaa4ba9ea48455e1253e, type: 2}
  - m_RefCount: 1
    m_Data: {fileID: 11400000, guid: 6692ed99bbba8134ba04f691798eedb7, type: 2}
  - m_RefCount: 1
    m_Data: {fileID: 11400000, guid: 52931d9563eaec74faaccd2a077a6435, type: 2}
  - m_RefCount: 1
    m_Data: {fileID: 11400000, guid: b1b01f85178d31541bf4fa1d73621930, type: 2}
  - m_RefCount: 1
    m_Data: {fileID: 11400000, guid: dc4aabe0c1638144998b94bd9651538e, type: 2}
  - m_RefCount: 1
    m_Data: {fileID: 11400000, guid: 90aea6e4ed7fbe6438bc9b8993687867, type: 2}
  - m_RefCount: 1
    m_Data: {fileID: 11400000, guid: 8fb0db0d5bece8b4a927ae9bd6da14da, type: 2}
  - m_RefCount: 1
    m_Data: {fileID: 11400000, guid: d50a174b84a1a5e489eb09ed25c69f61, type: 2}
  - m_RefCount: 1
    m_Data: {fileID: 11400000, guid: 1d3b0dfd9537c814ca87ae96ac01f103, type: 2}
  - m_RefCount: 1
    m_Data: {fileID: 11400000, guid: f3ad503557b2bf24e9b77953f848b846, type: 2}
  - m_RefCount: 1
    m_Data: {fileID: 11400000, guid: d678b347df1d38d418d950597f7861f0, type: 2}
  - m_RefCount: 1
    m_Data: {fileID: 11400000, guid: 2c6c60972afee0b4191571888fae2760, type: 2}
  - m_RefCount: 1
    m_Data: {fileID: 11400000, guid: b47bb8e19589b1f4aa979e6f20256a7e, type: 2}
  - m_RefCount: 1
    m_Data: {fileID: 11400000, guid: a64ffe4bd7027d84883540137e79fea6, type: 2}
  - m_RefCount: 1
    m_Data: {fileID: 11400000, guid: 1fdac13c5e09bfd4c96bf0f98a9bbfd4, type: 2}
  - m_RefCount: 1
    m_Data: {fileID: 11400000, guid: e1f8e9550719cb149ae465682ee79ba8, type: 2}
  - m_RefCount: 1
    m_Data: {fileID: 11400000, guid: 97a3605666e7a6741ba45e8f522633a4, type: 2}
  - m_RefCount: 1
    m_Data: {fileID: 11400000, guid: 0a71d60a09e1a5d4a819f170f5a6ecd4, type: 2}
  - m_RefCount: 1
    m_Data: {fileID: 11400000, guid: c3aa262fecaec4e4296ca33d956d63a9, type: 2}
  - m_RefCount: 1
    m_Data: {fileID: 11400000, guid: 8489f24e9ab6d314b96d6d234f3b69f2, type: 2}
  - m_RefCount: 1
    m_Data: {fileID: 11400000, guid: a8ca1388441a4c042bbb69d1a4d48a76, type: 2}
  - m_RefCount: 1
    m_Data: {fileID: 11400000, guid: ba47c690c8856234084ca7622c9f00ec, type: 2}
  - m_RefCount: 1
    m_Data: {fileID: 11400000, guid: b54efd2df35742d429e7185254168fb3, type: 2}
  - m_RefCount: 1
    m_Data: {fileID: 11400000, guid: ea5fa2c852754834b8fdc265d70ee321, type: 2}
  m_TileSpriteArray:
  - m_RefCount: 1
    m_Data: {fileID: 3834868603906769686, guid: 371adde5202423b45900d229d2efb6a9,
      type: 3}
  - m_RefCount: 1
    m_Data: {fileID: -4768734877019862531, guid: 371adde5202423b45900d229d2efb6a9,
      type: 3}
  - m_RefCount: 1
    m_Data: {fileID: -6008480010249992571, guid: 371adde5202423b45900d229d2efb6a9,
      type: 3}
  - m_RefCount: 1
    m_Data: {fileID: 3227097814093670755, guid: 371adde5202423b45900d229d2efb6a9,
      type: 3}
  - m_RefCount: 1
    m_Data: {fileID: -8339179475951856499, guid: 371adde5202423b45900d229d2efb6a9,
      type: 3}
  - m_RefCount: 1
    m_Data: {fileID: 6502736512073883112, guid: 371adde5202423b45900d229d2efb6a9,
      type: 3}
  - m_RefCount: 1
    m_Data: {fileID: -3663547741771026037, guid: 371adde5202423b45900d229d2efb6a9,
      type: 3}
  - m_RefCount: 1
    m_Data: {fileID: -3715849132347856441, guid: 371adde5202423b45900d229d2efb6a9,
      type: 3}
  - m_RefCount: 1
    m_Data: {fileID: -5790108063936846764, guid: 371adde5202423b45900d229d2efb6a9,
      type: 3}
  - m_RefCount: 1
    m_Data: {fileID: -1807440466647841244, guid: 371adde5202423b45900d229d2efb6a9,
      type: 3}
  - m_RefCount: 1
    m_Data: {fileID: -3777550615242853001, guid: 371adde5202423b45900d229d2efb6a9,
      type: 3}
  - m_RefCount: 1
    m_Data: {fileID: 6187717847525548743, guid: 371adde5202423b45900d229d2efb6a9,
      type: 3}
  - m_RefCount: 1
    m_Data: {fileID: 7365494074633768783, guid: 371adde5202423b45900d229d2efb6a9,
      type: 3}
  - m_RefCount: 1
    m_Data: {fileID: 54813008368543375, guid: 371adde5202423b45900d229d2efb6a9, type: 3}
  - m_RefCount: 1
    m_Data: {fileID: -1111467040747940836, guid: 371adde5202423b45900d229d2efb6a9,
      type: 3}
  - m_RefCount: 1
    m_Data: {fileID: 4539572432158512276, guid: 371adde5202423b45900d229d2efb6a9,
      type: 3}
  - m_RefCount: 1
    m_Data: {fileID: -9128652258105010429, guid: 371adde5202423b45900d229d2efb6a9,
      type: 3}
  - m_RefCount: 1
    m_Data: {fileID: -6205172343615221245, guid: 371adde5202423b45900d229d2efb6a9,
      type: 3}
  - m_RefCount: 1
    m_Data: {fileID: 7654806567737475841, guid: 371adde5202423b45900d229d2efb6a9,
      type: 3}
  - m_RefCount: 1
    m_Data: {fileID: -1702772467812443111, guid: 371adde5202423b45900d229d2efb6a9,
      type: 3}
  - m_RefCount: 1
    m_Data: {fileID: -6017339223957375553, guid: 371adde5202423b45900d229d2efb6a9,
      type: 3}
  - m_RefCount: 1
    m_Data: {fileID: 5778961287088506303, guid: 371adde5202423b45900d229d2efb6a9,
      type: 3}
  - m_RefCount: 1
    m_Data: {fileID: 8758155216525550727, guid: 371adde5202423b45900d229d2efb6a9,
      type: 3}
  - m_RefCount: 1
    m_Data: {fileID: 6116080786932476827, guid: 371adde5202423b45900d229d2efb6a9,
      type: 3}
  - m_RefCount: 1
    m_Data: {fileID: -6923900727490736670, guid: 371adde5202423b45900d229d2efb6a9,
      type: 3}
  - m_RefCount: 1
    m_Data: {fileID: 5996782324465608006, guid: 371adde5202423b45900d229d2efb6a9,
      type: 3}
  - m_RefCount: 1
    m_Data: {fileID: -4430661129386241135, guid: 371adde5202423b45900d229d2efb6a9,
      type: 3}
  - m_RefCount: 1
    m_Data: {fileID: 4545961179158321062, guid: 371adde5202423b45900d229d2efb6a9,
      type: 3}
  - m_RefCount: 1
    m_Data: {fileID: -2936289823458937912, guid: 371adde5202423b45900d229d2efb6a9,
      type: 3}
  - m_RefCount: 1
    m_Data: {fileID: 5991473849112003203, guid: 371adde5202423b45900d229d2efb6a9,
      type: 3}
  - m_RefCount: 1
    m_Data: {fileID: -4116040823106012581, guid: 371adde5202423b45900d229d2efb6a9,
      type: 3}
  - m_RefCount: 1
    m_Data: {fileID: 5043307788359985916, guid: 371adde5202423b45900d229d2efb6a9,
      type: 3}
  - m_RefCount: 1
    m_Data: {fileID: 6810050228620222166, guid: 371adde5202423b45900d229d2efb6a9,
      type: 3}
  - m_RefCount: 1
    m_Data: {fileID: 5594384267910941844, guid: 371adde5202423b45900d229d2efb6a9,
      type: 3}
  - m_RefCount: 1
    m_Data: {fileID: -2852338563396054931, guid: 371adde5202423b45900d229d2efb6a9,
      type: 3}
  - m_RefCount: 1
    m_Data: {fileID: -9178284988810271814, guid: 371adde5202423b45900d229d2efb6a9,
      type: 3}
  - m_RefCount: 1
    m_Data: {fileID: -6646765574518339977, guid: 371adde5202423b45900d229d2efb6a9,
      type: 3}
  - m_RefCount: 1
    m_Data: {fileID: 4330230722670678443, guid: 371adde5202423b45900d229d2efb6a9,
      type: 3}
  - m_RefCount: 1
    m_Data: {fileID: -1691220034148343436, guid: 371adde5202423b45900d229d2efb6a9,
      type: 3}
  - m_RefCount: 1
    m_Data: {fileID: 6732870910531023, guid: 371adde5202423b45900d229d2efb6a9, type: 3}
  - m_RefCount: 1
    m_Data: {fileID: -6831599063569703212, guid: 371adde5202423b45900d229d2efb6a9,
      type: 3}
  - m_RefCount: 1
    m_Data: {fileID: -5587653796134901919, guid: 371adde5202423b45900d229d2efb6a9,
      type: 3}
  - m_RefCount: 1
    m_Data: {fileID: -4272949958406870782, guid: 371adde5202423b45900d229d2efb6a9,
      type: 3}
  m_TileMatrixArray:
  - m_RefCount: 43
    m_Data:
      e00: 1
      e01: 0
      e02: 0
      e03: 0
      e10: 0
      e11: 1
      e12: 0
      e13: 0
      e20: 0
      e21: 0
      e22: 1
      e23: 0
      e30: 0
      e31: 0
      e32: 0
      e33: 1
  m_TileColorArray:
  - m_RefCount: 43
    m_Data: {r: 1, g: 1, b: 1, a: 1}
  m_TileObjectToInstantiateArray: []
  m_AnimationFrameRate: 1
  m_Color: {r: 1, g: 1, b: 1, a: 1}
  m_Origin: {x: -5, y: -3, z: 0}
  m_Size: {x: 7, y: 7, z: 1}
  m_TileAnchor: {x: 0.5, y: 0.5, z: 0}
  m_TileOrientation: 0
  m_TileOrientationMatrix:
    e00: 1
    e01: 0
    e02: 0
    e03: 0
    e10: 0
    e11: 1
    e12: 0
    e13: 0
    e20: 0
    e21: 0
    e22: 1
    e23: 0
    e30: 0
    e31: 0
    e32: 0
    e33: 1
--- !u!483693784 &3013598750790503840
TilemapRenderer:
  m_ObjectHideFlags: 0
  m_CorrespondingSourceObject: {fileID: 0}
  m_PrefabInstance: {fileID: 0}
  m_PrefabAsset: {fileID: 0}
  m_GameObject: {fileID: 3013598750790503845}
  m_Enabled: 1
  m_CastShadows: 0
  m_ReceiveShadows: 0
  m_DynamicOccludee: 1
  m_MotionVectors: 1
  m_LightProbeUsage: 0
  m_ReflectionProbeUsage: 0
  m_RayTracingMode: 0
  m_RenderingLayerMask: 1
  m_RendererPriority: 0
  m_Materials:
  - {fileID: 2100000, guid: a97c105638bdf8b4a8650670310a4cd3, type: 2}
  m_StaticBatchInfo:
    firstSubMesh: 0
    subMeshCount: 0
  m_StaticBatchRoot: {fileID: 0}
  m_ProbeAnchor: {fileID: 0}
  m_LightProbeVolumeOverride: {fileID: 0}
  m_ScaleInLightmap: 1
  m_ReceiveGI: 1
  m_PreserveUVs: 0
  m_IgnoreNormalsForChartDetection: 0
  m_ImportantGI: 0
  m_StitchLightmapSeams: 1
  m_SelectedEditorRenderState: 0
  m_MinimumChartSize: 4
  m_AutoUVMaxDistance: 0.5
  m_AutoUVMaxAngle: 89
  m_LightmapParameters: {fileID: 0}
  m_SortingLayerID: 0
  m_SortingLayer: 0
  m_SortingOrder: 1
  m_ChunkSize: {x: 32, y: 32, z: 32}
  m_ChunkCullingBounds: {x: 0, y: 0, z: 0}
  m_MaxChunkCount: 16
  m_MaxFrameAge: 16
  m_SortOrder: 0
  m_Mode: 0
  m_DetectChunkCullingBounds: 0
  m_MaskInteraction: 0
--- !u!61 &3013598750790503843
BoxCollider2D:
  m_ObjectHideFlags: 0
  m_CorrespondingSourceObject: {fileID: 0}
  m_PrefabInstance: {fileID: 0}
  m_PrefabAsset: {fileID: 0}
  m_GameObject: {fileID: 3013598750790503845}
  m_Enabled: 1
  m_Density: 1
  m_Material: {fileID: 0}
  m_IsTrigger: 0
  m_UsedByEffector: 0
  m_UsedByComposite: 0
  m_Offset: {x: -1.4562616, y: 0.58747673}
  m_SpriteTilingProperty:
    border: {x: 0, y: 0, z: 0, w: 0}
    pivot: {x: 0, y: 0}
    oldSize: {x: 0, y: 0}
    newSize: {x: 0, y: 0}
    adaptiveTilingThreshold: 0
    drawMode: 0
    adaptiveTiling: 0
  m_AutoTiling: 0
  serializedVersion: 2
  m_Size: {x: 5.4545727, y: 5.425411}
  m_EdgeRadius: 0
